Data.Exploration.Project.ECON.4110
…
#use import() to read in the id_name_link.csv file
id_name_link <- import('id_name_link.csv')

# Merge in the Scorecard Data. 
  # Use group_by() and mutate(n = n()) to count how many times each school name pops up in id_name_link.
      # mutate(n = n()) creates a new variable, n, in the data frame that represents the number of rows in each group.
  # Then, filter() to get rid of any school names that show up more than once.
group_by(id_name_link, schname) %>%
  mutate(schname_count = n()) %>%
  filter(schname_count == 1)

# A tibble: 3,523 × 4
# Groups:   schname [3,523]
   unitid   opeid schname                                    schname_count
    <int>   <int> <chr>                                              <int>
 1 180203 2517500 aaniiih nakoda college                                 1
 2 222178  353700 abilene christian university                           1
 3 138558  154100 abraham baldwin agricultural college                   1
 4 172866 2050300 academy college                                        1
 5 412173 3346300 academy for nursing and health occupations             1
 6 108232  753100 academy of art university                              1
 7 475635 4185500 academy of couture art                                 1
 8 126182  134500 adams state university                                 1
 9 188429  266600 adelphi university                                     1
10 188438  286000 adirondack community college                           1
# ℹ 3,513 more rows
…
Warning in inner_join(data, id_name_link, by = "schname"): Detected an unexpected many-to-many relationship between `x` and `y`.
ℹ Row 2854 of `x` matches multiple rows in `y`.
ℹ Row 3591 of `y` matches multiple rows in `x`.
ℹ If a many-to-many relationship is expected, set `relationship =
  "many-to-many"` to silence this warning.

Scorecard_JOIN_data_AND_id_name_link_BY_unitid <- 
  inner_join(data_JOIN_id_name_link_BY_schname, Scorecard, by = "unitid")
Scorecard_JOIN_data_AND_id_name_link_BY_unitid

# A tibble: 1,617,730 × 133
# Groups:   schname, keyword [9,914]
   schid schname  keyword keynum monthorweek index `_file` week       month     
   <chr> <chr>    <chr>    <int> <chr>       <int> <chr>   <date>     <date>    
 1 0     young h… young …      1 2013-03-31…    34 ./tren… 2013-03-31 2013-03-01
 2 0     young h… young …      1 2013-04-07…    36 ./tren… 2013-04-07 2013-04-01
 3 0     young h… young …      1 2013-04-14…    45 ./tren… 2013-04-14 2013-04-01
 4 0     young h… young …      1 2013-04-21…    45 ./tren… 2013-04-21 2013-04-01
 5 0     young h… young …      1 2013-04-28…   100 ./tren… 2013-04-28 2013-04-01
 6 0     young h… young …      1 2013-05-05…    42 ./tren… 2013-05-05 2013-05-01
 7 0     young h… young …      1 2013-05-12…    38 ./tren… 2013-05-12 2013-05-01
 8 0     young h… young …      1 2013-05-19…    38 ./tren… 2013-05-19 2013-05-01
 9 0     young h… young …      1 2013-05-26…    33 ./tren… 2013-05-26 2013-05-01
10 0     young h… young …      1 2013-06-02…    40 ./tren… 2013-06-02 2013-06-01
# ℹ 1,617,720 more rows
# ℹ 124 more variables: index.standard <dbl>, unitid <int>, opeid.x <int>,
#   opeid.y <int>, opeid6 <int>, INSTNM <chr>, CITY <chr>, STABBR <chr>,
#   INSTURL <chr>, NPCURL <chr>, HCM2 <int>, PREDDEG <int>, CONTROL <int>,
#   LOCALE <chr>, HBCU <chr>, PBI <chr>, ANNHI <chr>, TRIBAL <chr>,
#   AANAPII <chr>, HSI <chr>, NANTI <chr>, MENONLY <chr>, WOMENONLY <chr>,
#   RELAFFIL <chr>, SATVR25 <chr>, SATVR75 <chr>, SATMT25 <chr>, …
…
